<?xml version="1.0" encoding="UTF-8" standalone="no"?>
<svg width="20px" height="20px" viewBox="0 0 20 20" version="1.1" xmlns="http://www.w3.org/2000/svg" xmlns:xlink="http://www.w3.org/1999/xlink">
    <!-- Generator: Sketch 49 (51002) - http://www.bohemiancoding.com/sketch -->
    <title>Shape</title>
    <desc>Created with Sketch.</desc>
    <defs></defs>
    <g id="Avaleht" stroke="none" stroke-width="1" fill="none" fill-rule="evenodd" opacity="0.49895056">
        <g id="Desktop" transform="translate(-901.000000, -185.000000)" fill="#000000" fill-rule="nonzero">
            <g id="otsi_bar" transform="translate(499.000000, 180.000000)">
                <g id="Layer_1" transform="translate(402.000000, 5.000000)">
                    <path d="M20,18.7864583 L14.0989583,12.8802083 C15.1822917,11.5260417 15.8333333,9.80208333 15.8333333,7.92708333 C15.8333333,3.546875 12.2864583,0 7.91666667,0 C3.54166667,0 0,3.55208333 0,7.92708333 C0,12.3020833 3.546875,15.8541667 7.91666667,15.8541667 C9.80208333,15.8541667 11.53125,15.1927083 12.890625,14.09375 L18.7864583,20 L20,18.7864583 Z M3.04852941,12.9544557 C1.72573529,11.6336065 1,9.87590067 1,8.00512601 C1,6.13435135 1.73088235,4.37664548 3.04852941,3.05579633 C4.36617647,1.73494719 6.13161765,1 8,1 C9.86838235,1 11.6286765,1.7298077 12.9514706,3.05065684 C14.2742647,4.37150599 15,6.12921185 15,7.99998652 C15,9.87076118 14.2691176,11.628467 12.9514706,12.9493162 C11.6286765,14.2701653 9.86838235,14.999973 8,14.999973 C6.13161765,15.0051125 4.37132353,14.2753048 3.04852941,12.9544557 L3.04852941,12.9544557 Z" id="Shape"></path>
                </g>
            </g>
        </g>
    </g>
</svg>